\beamer@endinputifotherversion {3.33pt}
\select@language {french}
\beamer@sectionintoc {1}{Rappels}{6}{0}{1}
\beamer@sectionintoc {2}{Construction de l'EM}{8}{0}{2}
\beamer@sectionintoc {3}{\IeC {\'e}tude de quelques Lois}{11}{0}{3}
\beamer@sectionintoc {4}{EM \IeC {\`a} noyau}{18}{0}{4}
\beamer@sectionintoc {5}{Conclusion}{27}{0}{5}
