\relax 
\providecommand\hyper@newdestlabel[2]{}
\providecommand\HyperFirstAtBeginDocument{\AtBeginDocument}
\HyperFirstAtBeginDocument{\ifx\hyper@anchor\@undefined
\global\let\oldcontentsline\contentsline
\gdef\contentsline#1#2#3#4{\oldcontentsline{#1}{#2}{#3}}
\global\let\oldnewlabel\newlabel
\gdef\newlabel#1#2{\newlabelxx{#1}#2}
\gdef\newlabelxx#1#2#3#4#5#6{\oldnewlabel{#1}{{#2}{#3}}}
\AtEndDocument{\ifx\hyper@anchor\@undefined
\let\contentsline\oldcontentsline
\let\newlabel\oldnewlabel
\fi}
\fi}
\global\let\hyper@last\relax 
\gdef\HyperFirstAtBeginDocument#1{#1}
\providecommand\HyField@AuxAddToFields[1]{}
\providecommand\HyField@AuxAddToCoFields[2]{}
\catcode`:\active
\catcode`;\active
\catcode`!\active
\catcode`?\active
\@writefile{toc}{\beamer@endinputifotherversion {3.33pt}}
\@writefile{nav}{\beamer@endinputifotherversion {3.33pt}}
\select@language{french}
\@writefile{toc}{\select@language{french}}
\@writefile{lof}{\select@language{french}}
\@writefile{lot}{\select@language{french}}
\@writefile{nav}{\headcommand {\slideentry {0}{0}{1}{1/1}{}{0}}}
\@writefile{nav}{\headcommand {\beamer@framepages {1}{1}}}
\@writefile{nav}{\headcommand {\slideentry {0}{0}{2}{2/4}{}{0}}}
\@writefile{nav}{\headcommand {\beamer@framepages {2}{4}}}
\@writefile{nav}{\headcommand {\slideentry {0}{0}{3}{5/5}{}{0}}}
\@writefile{nav}{\headcommand {\beamer@framepages {5}{5}}}
\@writefile{toc}{\beamer@sectionintoc {1}{Rappels}{6}{0}{1}}
\@writefile{nav}{\headcommand {\sectionentry {1}{Rappels}{6}{Rappels}{0}}}
\@writefile{nav}{\headcommand {\beamer@sectionpages {1}{5}}}
\@writefile{nav}{\headcommand {\beamer@subsectionpages {1}{5}}}
\@writefile{nav}{\headcommand {\slideentry {1}{0}{4}{6/6}{}{0}}}
\@writefile{nav}{\headcommand {\beamer@framepages {6}{6}}}
\@writefile{nav}{\headcommand {\slideentry {1}{0}{5}{7/7}{}{0}}}
\@writefile{nav}{\headcommand {\beamer@framepages {7}{7}}}
\citation{Dempster97}
\@writefile{toc}{\beamer@sectionintoc {2}{Construction de l'EM}{8}{0}{2}}
\@writefile{nav}{\headcommand {\sectionentry {2}{Construction de l'EM}{8}{Construction de l'EM}{0}}}
\@writefile{nav}{\headcommand {\beamer@sectionpages {6}{7}}}
\@writefile{nav}{\headcommand {\beamer@subsectionpages {6}{7}}}
\@writefile{nav}{\headcommand {\slideentry {2}{0}{6}{8/8}{}{0}}}
\@writefile{nav}{\headcommand {\beamer@framepages {8}{8}}}
\@writefile{nav}{\headcommand {\slideentry {2}{0}{7}{9/9}{}{0}}}
\@writefile{nav}{\headcommand {\beamer@framepages {9}{9}}}
\@writefile{nav}{\headcommand {\slideentry {2}{0}{8}{10/10}{}{0}}}
\@writefile{nav}{\headcommand {\beamer@framepages {10}{10}}}
\@writefile{toc}{\beamer@sectionintoc {3}{\IeC {\'e}tude de quelques Lois}{11}{0}{3}}
\@writefile{nav}{\headcommand {\sectionentry {3}{\IeC {\'e}tude de quelques Lois}{11}{\IeC {\'e}tude de quelques Lois}{0}}}
\@writefile{nav}{\headcommand {\beamer@sectionpages {8}{10}}}
\@writefile{nav}{\headcommand {\beamer@subsectionpages {8}{10}}}
\@writefile{nav}{\headcommand {\slideentry {3}{0}{9}{11/11}{}{0}}}
\@writefile{nav}{\headcommand {\beamer@framepages {11}{11}}}
\@writefile{nav}{\headcommand {\slideentry {3}{0}{10}{12/13}{}{0}}}
\@writefile{nav}{\headcommand {\beamer@framepages {12}{13}}}
\@writefile{nav}{\headcommand {\slideentry {3}{0}{11}{14/17}{}{0}}}
\@writefile{nav}{\headcommand {\beamer@framepages {14}{17}}}
\citation{Aizerman1964}
\@writefile{toc}{\beamer@sectionintoc {4}{EM \IeC {\`a} noyau}{18}{0}{4}}
\@writefile{nav}{\headcommand {\sectionentry {4}{EM \IeC {\`a} noyau}{18}{EM \IeC {\`a} noyau}{0}}}
\@writefile{nav}{\headcommand {\beamer@sectionpages {11}{17}}}
\@writefile{nav}{\headcommand {\beamer@subsectionpages {11}{17}}}
\@writefile{nav}{\headcommand {\slideentry {4}{0}{12}{18/18}{}{0}}}
\@writefile{nav}{\headcommand {\beamer@framepages {18}{18}}}
\citation{Wicker2014}
\@writefile{nav}{\headcommand {\slideentry {4}{0}{13}{19/19}{}{0}}}
\@writefile{nav}{\headcommand {\beamer@framepages {19}{19}}}
\@writefile{nav}{\headcommand {\slideentry {4}{0}{14}{20/20}{}{0}}}
\@writefile{nav}{\headcommand {\beamer@framepages {20}{20}}}
\@writefile{snm}{\beamer@slide {mono-simpleEst}{21}}
\newlabel{mono-simpleEst}{{6}{21}{EM à noyau}{Doc-Start}{}}
\@writefile{nav}{\headcommand {\slideentry {4}{0}{15}{21/22}{}{0}}}
\@writefile{nav}{\headcommand {\beamer@framepages {21}{22}}}
\@writefile{nav}{\headcommand {\slideentry {4}{0}{16}{23/24}{}{0}}}
\@writefile{nav}{\headcommand {\beamer@framepages {23}{24}}}
\citation{Wicker2001}
\@writefile{nav}{\headcommand {\slideentry {4}{0}{17}{25/26}{}{0}}}
\@writefile{nav}{\headcommand {\beamer@framepages {25}{26}}}
\@writefile{toc}{\beamer@sectionintoc {5}{Conclusion}{27}{0}{5}}
\@writefile{nav}{\headcommand {\sectionentry {5}{Conclusion}{27}{Conclusion}{0}}}
\@writefile{nav}{\headcommand {\beamer@sectionpages {18}{26}}}
\@writefile{nav}{\headcommand {\beamer@subsectionpages {18}{26}}}
\@writefile{nav}{\headcommand {\slideentry {5}{0}{18}{27/27}{}{0}}}
\@writefile{nav}{\headcommand {\beamer@framepages {27}{27}}}
\bibstyle{unsrt}
\bibdata{memoirebib}
\bibcite{Dempster97}{\hyperlink {beamerbibDempster97}{1}}
\bibcite{Aizerman1964}{\hyperlink {beamerbibAizerman1964}{2}}
\bibcite{Wicker2014}{\hyperlink {beamerbibWicker2014}{3}}
\bibcite{Wicker2001}{\hyperlink {beamerbibWicker2001}{4}}
\@writefile{nav}{\headcommand {\slideentry {5}{0}{19}{28/28}{}{0}}}
\@writefile{nav}{\headcommand {\beamer@framepages {28}{28}}}
\@writefile{nav}{\headcommand {\beamer@partpages {1}{28}}}
\@writefile{nav}{\headcommand {\beamer@subsectionpages {27}{28}}}
\@writefile{nav}{\headcommand {\beamer@sectionpages {27}{28}}}
\@writefile{nav}{\headcommand {\beamer@documentpages {28}}}
\@writefile{nav}{\headcommand {\def \inserttotalframenumber {19}}}
