\begin{thebibliography}{1}

\bibitem{Dempster97}
A.P. Dempster, N.M. Laird, and D.B. Rubin.
\newblock Maximum likelihood from incomplete data with the em algorithm (with
  discussion).
\newblock {\em Journal of the Royal Statistical Society, Series B}, 39:1, 1997.

\bibitem{Aizerman1964}
Braverman E. M. \& Rozoner L.~I. Aizerman, A.
\newblock heoretical foundations of the potential function method in pattern
  recognition learning.
\newblock 1964.

\bibitem{Wicker2014}
Alejandro~Murua Nicolas~Wicker.
\newblock Kernel-based mixtured models for classification.

\bibitem{Wicker2001}
Jean Claude Thierry Olivier~Poch Nicolas~Wicker, Guy René~Perrin.
\newblock Secator: a program for inferring protein subfamilies from
  phylogenetic trees.
\newblock {\em Molecular biology and evolution}, 2001.

\end{thebibliography}
