\begin{thebibliography}{1}

\bibitem{Dempster97}
A.P. Dempster, N.M. Laird, and D.B. Rubin.
\newblock Maximum likelihood from incomplete data with the em algorithm (with
  discussion).
\newblock {\em Journal of the Royal Statistical Society, Series B}, 39:1, 1997.

\bibitem{McLachlanPeel00}
Geoffrey Mclachlan and David Peel.
\newblock {\em {Finite Mixture Models}}.
\newblock Wiley Series in Probability and Statistics. Wiley-Interscience, 1
  edition, October 2000.

\bibitem{kullback1951}
Leibler~R.A. Kullback, S.
\newblock On information and sufficiency.
\newblock {\em Annals of Mathematical Statistics}, 1951.

\bibitem{BetaLoi}
Arjun~K. Gupta and Saralees Nadarajah.
\newblock {\em Handbook of beta distribution and its applications}.
\newblock 2004.

\bibitem{Dennis1996}
J.E.~Jr Dennis and R.B Schnabel.
\newblock Numerical methods for unconstrained optimization and nonlinear
  equations.
\newblock {\em Siam}, 1996.

\bibitem{Brent1973}
Richard~P. Brent.
\newblock Some efficient algorithms for solving systems of nonlinear equations.
\newblock 10(2):327--344, April 1973.

\end{thebibliography}
