\relax 
\citation{Dempster97}
\citation{McLachlanPeel00}
\select@language{english}
\@writefile{toc}{\select@language{english}}
\@writefile{lof}{\select@language{english}}
\@writefile{lot}{\select@language{english}}
\@writefile{toc}{\contentsline {section}{\numberline {1}A Short Course on Mixture Modeling}{1}}
\newlabel{eq:vraisemblance}{{2}{1}}
\@writefile{toc}{\contentsline {section}{\numberline {2}The Algorithms}{1}}
\@writefile{toc}{\contentsline {subsection}{\numberline {2.1}Construction}{1}}
\citation{kullback1951}
\@writefile{loa}{\contentsline {algorithm}{\numberline {1}{\ignorespaces Converging to a maximum L with the accuracy $\epsilon $}}{3}}
\@writefile{toc}{\contentsline {subsection}{\numberline {2.2}Final expression of the log-likelihood}{3}}
\newlabel{eq:finalLogVraisemblance}{{4}{3}}
\@writefile{toc}{\contentsline {subsection}{\numberline {2.3}Final algorithm}{3}}
\@writefile{loa}{\contentsline {algorithm}{\numberline {2}{\ignorespaces Converging to a maximum L with the accuracy $\epsilon $}}{4}}
\@writefile{toc}{\contentsline {subsection}{\numberline {2.4}the SEM algorithm}{4}}
\newlabel{eq:mStepSEM}{{5}{4}}
\@writefile{toc}{\contentsline {subsection}{\numberline {2.5}the CEM algorithm}{4}}
\@writefile{toc}{\contentsline {section}{\numberline {3}Estimation of few distribution}{4}}
\@writefile{toc}{\contentsline {subsection}{\numberline {3.1}Gaussian mixture}{4}}
\@writefile{toc}{\contentsline {subsubsection}{\numberline {3.1.1}M step of the univariate model}{4}}
\@writefile{toc}{\contentsline {subsubsection}{\numberline {3.1.2}M step of the multivariate model}{5}}
\@writefile{toc}{\contentsline {subsubsection}{\numberline {3.1.3}Extension to multidimensional variable}{5}}
\citation{BetaLoi}
\citation{Dennis1996}
\@writefile{toc}{\contentsline {subsection}{\numberline {3.2}Beta mixture}{6}}
\@writefile{toc}{\contentsline {subsubsection}{\numberline {3.2.1}M step of the univariate model}{6}}
\@writefile{toc}{\contentsline {subsubsection}{\numberline {3.2.2}M step of the multivariate model}{6}}
\newlabel{eq:logVraisBeta2}{{8}{6}}
\@writefile{toc}{\contentsline {subsubsection}{\numberline {3.2.3}Extension to multidimensionality}{7}}
\@writefile{toc}{\contentsline {subsection}{\numberline {3.3}Gamma mixture}{8}}
\@writefile{toc}{\contentsline {subsubsection}{\numberline {3.3.1}M step of the univariate model}{8}}
\@writefile{toc}{\contentsline {subsubsection}{\numberline {3.3.2}M step of the multivariate model}{8}}
\@writefile{lof}{\contentsline {figure}{\numberline {1}{\ignorespaces  classification for simple gaussian distribution}}{9}}
\newlabel{fig_gaussMix1}{{1}{9}}
\newlabel{R\IeC {\'e}f\IeC {\'e}rence}{{1}{9}}
\@writefile{toc}{\contentsline {section}{\numberline {4}Results}{9}}
\@writefile{toc}{\contentsline {subsection}{\numberline {4.1}Gaussian mixture}{9}}
\@writefile{lof}{\contentsline {figure}{\numberline {2}{\ignorespaces  Results in 3 dimensions for a Gaussian distribution.}}{10}}
\newlabel{fig_gaussMix2}{{2}{10}}
\newlabel{R\IeC {\'e}f\IeC {\'e}rence}{{2}{10}}
\@writefile{lof}{\contentsline {figure}{\numberline {3}{\ignorespaces  Confusion matrix for the Iris dataset.}}{10}}
\newlabel{fig_gaussMix3}{{3}{10}}
\newlabel{R\IeC {\'e}f\IeC {\'e}rence}{{3}{10}}
\@writefile{lof}{\contentsline {figure}{\numberline {4}{\ignorespaces  results of estimations of a two components three dimensional beta mixture.}}{11}}
\newlabel{fig_betaMix1}{{4}{11}}
\newlabel{R\IeC {\'e}f\IeC {\'e}rence}{{4}{11}}
\@writefile{toc}{\contentsline {subsection}{\numberline {4.2}Beta mixture}{11}}
\citation{Brent1973}
\@writefile{toc}{\contentsline {section}{\numberline {5}La m\IeC {\'e}thode de Brent}{12}}
\@writefile{toc}{\contentsline {subsection}{\numberline {5.1}La m\IeC {\'e}thode de Dekker}{12}}
\@writefile{toc}{\contentsline {subsection}{\numberline {5.2}Les modifications de Brent}{13}}
\bibstyle{unsrt}
\bibdata{../memoirebib}
\bibcite{Dempster97}{1}
\bibcite{McLachlanPeel00}{2}
\bibcite{kullback1951}{3}
\bibcite{BetaLoi}{4}
\bibcite{Dennis1996}{5}
\bibcite{Brent1973}{6}
\@writefile{toc}{\contentsline {subsection}{\numberline {5.3}R\IeC {\'e}solution d'un syst\IeC {\`e}me d'\IeC {\'e}quation}{14}}
\@writefile{loa}{\contentsline {algorithm}{\numberline {3}{\ignorespaces calculer $x$ et $y$ avec la pr\IeC {\'e}cision $\epsilon $}}{14}}
\@writefile{toc}{\contentsline {subsection}{\numberline {5.4}Impl\IeC {\'e}mentation num\IeC {\'e}rique}{14}}
