\relax 
\catcode`:\active
\catcode`;\active
\catcode`!\active
\catcode`?\active
\select@language{french}
\@writefile{toc}{\select@language{french}}
\@writefile{lof}{\select@language{french}}
\@writefile{lot}{\select@language{french}}
\@writefile{toc}{\contentsline {part}{Introduction}{2}}
\@writefile{toc}{\contentsline {paragraph}{}{2}}
\@writefile{toc}{\contentsline {paragraph}{}{2}}
\@writefile{toc}{\contentsline {paragraph}{}{2}}
\@writefile{toc}{\contentsline {part}{I\hspace  {1em}L'algorithme EM}{3}}
\citation{Dempster97}
\citation{McLachlanPeel00}
\@writefile{toc}{\contentsline {section}{\numberline {0.1}Introduction aux mod\IeC {\`e}les de m\IeC {\'e}lange}{4}}
\@writefile{toc}{\contentsline {section}{\numberline {0.2}fonction de vraisemblance}{4}}
\@writefile{toc}{\contentsline {paragraph}{}{4}}
\newlabel{eq:vrais}{{2}{4}}
\newlabel{eq:lvrais}{{3}{4}}
\@writefile{toc}{\contentsline {paragraph}{}{4}}
\newlabel{eq:vraisemblance}{{4}{4}}
\citation{kullback1951}
\@writefile{toc}{\contentsline {section}{\numberline {0.3}Construction de l'algorithme}{5}}
\@writefile{toc}{\contentsline {subparagraph}{}{5}}
\@writefile{loa}{\contentsline {algorithm}{\numberline {1}{\ignorespaces S'approcher d'un maximum de L avec la pr\IeC {\'e}cision $\epsilon $}}{6}}
\@writefile{toc}{\contentsline {paragraph}{}{6}}
\@writefile{loa}{\contentsline {algorithm}{\numberline {2}{\ignorespaces Converger vers un maximum de L avec la pr\IeC {\'e}cision $\epsilon $}}{6}}
\@writefile{toc}{\contentsline {subsection}{\numberline {0.3.1}L'algorithme SEM}{6}}
\newlabel{eq:mStepSEM}{{6}{7}}
\@writefile{toc}{\contentsline {section}{\numberline {0.4}Estimation des param\IeC {\`e}tres pour quelques distributions}{7}}
\@writefile{toc}{\contentsline {subsection}{\numberline {0.4.1}M\IeC {\'e}lange Gaussien}{7}}
\@writefile{toc}{\contentsline {subsubsection}{M step du mod\IeC {\`e}le univari\IeC {\'e}}{7}}
\@writefile{toc}{\contentsline {subsubsection}{M step du mod\IeC {\`e}le multivari\IeC {\'e}}{8}}
\@writefile{toc}{\contentsline {subsubsection}{Extension au cas multivari\IeC {\'e}}{8}}
\@writefile{toc}{\contentsline {subsection}{\numberline {0.4.2}M\IeC {\'e}lange B\IeC {\'e}ta}{8}}
\@writefile{toc}{\contentsline {subsubsection}{M step du mod\IeC {\`e}le univari\IeC {\'e}}{8}}
\citation{BetaLoi}
\citation{Dennis1996}
\@writefile{toc}{\contentsline {subsubsection}{M step du mod\IeC {\`e}le multivari\IeC {\'e}}{9}}
\newlabel{eq:logVraisBeta2}{{9}{9}}
\@writefile{toc}{\contentsline {subsubsection}{Extensions au cas multidimensionnel}{10}}
\@writefile{toc}{\contentsline {subsection}{\numberline {0.4.3}M\IeC {\'e}lange Gamma}{10}}
\@writefile{lof}{\contentsline {figure}{\numberline {1}{\ignorespaces  classification for simple gaussian distribution}}{11}}
\newlabel{fig_gaussMix1}{{1}{11}}
\newlabel{R\IeC {\'e}f\IeC {\'e}rence}{{1}{11}}
\@writefile{toc}{\contentsline {subsubsection}{M step of the univariate model}{11}}
\@writefile{toc}{\contentsline {subsubsection}{M step of the multivariate model}{11}}
\@writefile{toc}{\contentsline {section}{\numberline {0.5}R\IeC {\'e}sultats}{11}}
\@writefile{toc}{\contentsline {subsection}{\numberline {0.5.1}Visualisation}{11}}
\@writefile{toc}{\contentsline {paragraph}{}{11}}
\@writefile{toc}{\contentsline {paragraph}{}{11}}
\@writefile{toc}{\contentsline {subsection}{\numberline {0.5.2}M\IeC {\'e}lange Gaussien}{11}}
\@writefile{toc}{\contentsline {paragraph}{}{11}}
\@writefile{lof}{\contentsline {figure}{\numberline {2}{\ignorespaces  Results in 3 dimensions for a Gaussian distribution.}}{12}}
\newlabel{fig_gaussMix2}{{2}{12}}
\newlabel{R\IeC {\'e}f\IeC {\'e}rence}{{2}{12}}
\@writefile{lof}{\contentsline {figure}{\numberline {3}{\ignorespaces  Confusion matrix for the Iris dataset.}}{12}}
\newlabel{fig_gaussMix3}{{3}{12}}
\newlabel{R\IeC {\'e}f\IeC {\'e}rence}{{3}{12}}
\citation{Brent1973}
\@writefile{lof}{\contentsline {figure}{\numberline {4}{\ignorespaces  results of estimations of a two components three dimensional beta mixture.}}{13}}
\newlabel{fig_betaMix1}{{4}{13}}
\newlabel{R\IeC {\'e}f\IeC {\'e}rence}{{4}{13}}
\@writefile{toc}{\contentsline {subsection}{\numberline {0.5.3}M\IeC {\'e}lange B\IeC {\'e}ta}{13}}
\@writefile{toc}{\contentsline {section}{\numberline {0.6}Annexe : r\IeC {\'e}solution de syst\IeC {\`e}me d'\IeC {\'e}quation}{13}}
\@writefile{toc}{\contentsline {subsection}{\numberline {0.6.1}La m\IeC {\'e}thode de Brent}{13}}
\@writefile{toc}{\contentsline {subsection}{\numberline {0.6.2}La m\IeC {\'e}thode de Dekker}{14}}
\@writefile{toc}{\contentsline {subsection}{\numberline {0.6.3}Les modifications de Brent}{14}}
\@writefile{toc}{\contentsline {subsection}{\numberline {0.6.4}Impl\IeC {\'e}mentation num\IeC {\'e}rique}{15}}
\@writefile{toc}{\contentsline {part}{II\hspace  {1em}EM \IeC {\`a} noyau}{16}}
\citation{Wicker2014}
\citation{Aizerman1964}
\citation{Silverman1996}
\@writefile{toc}{\contentsline {section}{\numberline {0.7}Introduction au probl\IeC {\`e}me}{17}}
\@writefile{toc}{\contentsline {paragraph}{}{17}}
\@writefile{toc}{\contentsline {paragraph}{}{17}}
\newlabel{eqKernelTrick}{{12}{17}}
\@writefile{toc}{\contentsline {paragraph}{}{17}}
\@writefile{lof}{\contentsline {figure}{\numberline {5}{\ignorespaces  Distribution of the distant vector Y, where X rises from a normal distribution and different values of the bandwidth.}}{18}}
\newlabel{fig_Iexptest}{{5}{18}}
\newlabel{R\IeC {\'e}f\IeC {\'e}rence}{{5}{18}}
\@writefile{lof}{\contentsline {figure}{\numberline {6}{\ignorespaces  Distribution of each class of the Isis dataset, for different values of the bandwidth, and its estimation by an exponential distribution (solid red line) and a Rayleigh(dashed green line).}}{19}}
\newlabel{fig_Iexptest3}{{6}{19}}
\newlabel{R\IeC {\'e}f\IeC {\'e}rence}{{6}{19}}
\@writefile{toc}{\contentsline {section}{\numberline {0.8}EM \IeC {\`a} noyau}{20}}
\@writefile{toc}{\contentsline {subsection}{\numberline {0.8.1}Estimation des param\IeC {\`e}tres}{20}}
\newlabel{SectionEstimation}{{0.8.1}{20}}
\newlabel{mono-simpleEst}{{14}{20}}
\@writefile{toc}{\contentsline {subsubsection}{Distribution exponentielle}{20}}
\@writefile{toc}{\contentsline {paragraph}{mod\IeC {\`e}le univari\IeC {\'e}}{20}}
\@writefile{toc}{\contentsline {paragraph}{mod\IeC {\`e}le multivari\IeC {\'e}}{20}}
\@writefile{toc}{\contentsline {subsubsection}{Distribution de Raileigh}{21}}
\@writefile{toc}{\contentsline {paragraph}{Mod\IeC {\`e}le univari\IeC {\'e}}{21}}
\@writefile{toc}{\contentsline {paragraph}{Mod\IeC {\`e}le multivari\IeC {\'e}}{21}}
\@writefile{toc}{\contentsline {subsection}{\numberline {0.8.2}Choisir le nombre de composante du m\IeC {\'e}lange}{22}}
\@writefile{toc}{\contentsline {paragraph}{}{22}}
\@writefile{toc}{\contentsline {subsection}{\numberline {0.8.3}Choix de la bande passante}{22}}
\@writefile{toc}{\contentsline {paragraph}{}{22}}
\@writefile{toc}{\contentsline {subparagraph}{}{22}}
\citation{Wicker2014}
\citation{Wicker2001}
\@writefile{toc}{\contentsline {subsection}{\numberline {0.8.4}Classification}{23}}
\@writefile{toc}{\contentsline {paragraph}{Par les probabilit\IeC {\'e}s conditionnelles}{23}}
\@writefile{toc}{\contentsline {paragraph}{The Bayes discriminant conditionnally-independent distance rule (CID)}{23}}
\@writefile{toc}{\contentsline {subsection}{\numberline {0.8.5}R\IeC {\'e}sultats interm\IeC {\'e}diaires}{23}}
\@writefile{toc}{\contentsline {paragraph}{}{23}}
\@writefile{toc}{\contentsline {paragraph}{}{23}}
\@writefile{toc}{\contentsline {paragraph}{}{23}}
\@writefile{lof}{\contentsline {figure}{\numberline {7}{\ignorespaces  First results on the Iris datasets. On the left the exponential distribution is used, whereas the Rayleigh is used on the right.}}{24}}
\newlabel{fig_resInt1}{{7}{24}}
\newlabel{R\IeC {\'e}f\IeC {\'e}rence}{{7}{24}}
\@writefile{toc}{\contentsline {section}{\numberline {0.9}Application \IeC {\`a} la classification des prot\IeC {\'e}ines}{24}}
\@writefile{toc}{\contentsline {paragraph}{}{24}}
\@writefile{toc}{\contentsline {paragraph}{}{24}}
\bibstyle{unsrt}
\bibdata{memoirebib}
\@writefile{toc}{\contentsline {part}{Conclusion}{25}}
\@writefile{toc}{\contentsline {paragraph}{}{25}}
\@writefile{toc}{\contentsline {paragraph}{}{25}}
\@writefile{toc}{\contentsline {paragraph}{}{25}}
\bibcite{Dempster97}{1}
\bibcite{McLachlanPeel00}{2}
\bibcite{kullback1951}{3}
\bibcite{BetaLoi}{4}
\bibcite{Dennis1996}{5}
\bibcite{Brent1973}{6}
\bibcite{Wicker2014}{7}
\bibcite{Aizerman1964}{8}
\bibcite{Silverman1996}{9}
\bibcite{Wicker2001}{10}
