\relax 
\citation{Dempster97}
\citation{McLachlanPeel00}
\@writefile{toc}{\contentsline {section}{\numberline {0.1}A Short Course on Mixture Modeling}{4}}
\newlabel{eq:vraisemblance}{{\M@TitleReference {2}{A Short Course on Mixture Modeling}}{4}}
\@writefile{toc}{\contentsline {section}{\numberline {0.2}The Algorithms}{4}}
\@writefile{toc}{\contentsline {subsection}{Construction}{4}}
\citation{kullback1951}
\@writefile{toc}{\contentsline {subsection}{Final expression of the log-likelihood}{6}}
\newlabel{eq:finalLogVraisemblance}{{\M@TitleReference {4}{Final expression of the log-likelihood}}{6}}
\@writefile{toc}{\contentsline {subsection}{Final algorithm}{6}}
\@writefile{toc}{\contentsline {subsection}{the SEM algorithm}{6}}
\newlabel{eq:mStepSEM}{{\M@TitleReference {5}{the SEM algorithm}}{6}}
\@writefile{toc}{\contentsline {subsection}{the CEM algorithm}{7}}
\@writefile{toc}{\contentsline {section}{\numberline {0.3}Estimation of few distribution}{7}}
\@writefile{toc}{\contentsline {subsection}{Gaussian mixture}{7}}
\@writefile{toc}{\contentsline {subsubsection}{M step of the univariate model}{7}}
\@writefile{toc}{\contentsline {subsubsection}{M step of the multivariate model}{7}}
\citation{BetaLoi}
\@writefile{toc}{\contentsline {subsubsection}{Extension to multidimensional variable}{8}}
\@writefile{toc}{\contentsline {subsection}{Beta mixture}{8}}
\@writefile{toc}{\contentsline {subsubsection}{M step of the univariate model}{8}}
\@writefile{toc}{\contentsline {subsubsection}{M step of the multivariate model}{8}}
\newlabel{eq:logVraisBeta2}{{\M@TitleReference {8}{M step of the multivariate model}}{8}}
\citation{Dennis1996}
\@writefile{toc}{\contentsline {subsubsection}{Extension to multidimensionality}{9}}
\@writefile{toc}{\contentsline {subsection}{Gamma mixture}{10}}
\@writefile{toc}{\contentsline {subsubsection}{M step of the univariate model}{10}}
\@writefile{toc}{\contentsline {subsubsection}{M step of the multivariate model}{10}}
\@writefile{lof}{\contentsline {figure}{\numberline {0.1}{\ignorespaces  classification for simple gaussian distribution}}{11}}
\newlabel{fig_gaussMix1}{{\M@TitleReference {0.1}{ classification for simple gaussian distribution}}{11}}
\newlabel{R\IeC {\'e}f\IeC {\'e}rence}{{\M@TitleReference {0.1}{ classification for simple gaussian distribution}}{11}}
\@writefile{lof}{\contentsline {figure}{\numberline {0.2}{\ignorespaces  Results in 3 dimensions for a Gaussian distribution.}}{11}}
\newlabel{fig_gaussMix2}{{\M@TitleReference {0.2}{ Results in 3 dimensions for a Gaussian distribution.}}{11}}
\newlabel{R\IeC {\'e}f\IeC {\'e}rence}{{\M@TitleReference {0.2}{ Results in 3 dimensions for a Gaussian distribution.}}{11}}
\@writefile{lof}{\contentsline {figure}{\numberline {0.3}{\ignorespaces  Confusion matrix for the Iris dataset.}}{11}}
\newlabel{fig_gaussMix3}{{\M@TitleReference {0.3}{ Confusion matrix for the Iris dataset.}}{11}}
\newlabel{R\IeC {\'e}f\IeC {\'e}rence}{{\M@TitleReference {0.3}{ Confusion matrix for the Iris dataset.}}{11}}
\@writefile{toc}{\contentsline {section}{\numberline {0.4}Results}{11}}
\@writefile{toc}{\contentsline {subsection}{Gaussian mixture}{11}}
\@writefile{lof}{\contentsline {figure}{\numberline {0.4}{\ignorespaces  results of estimations of a two components three dimensional beta mixture.}}{12}}
\newlabel{fig_betaMix1}{{\M@TitleReference {0.4}{ results of estimations of a two components three dimensional beta mixture.}}{12}}
\newlabel{R\IeC {\'e}f\IeC {\'e}rence}{{\M@TitleReference {0.4}{ results of estimations of a two components three dimensional beta mixture.}}{12}}
\@writefile{toc}{\contentsline {subsection}{Beta mixture}{12}}
\citation{Brent1973}
\@writefile{toc}{\contentsline {section}{\numberline {0.5}La m\IeC {\'e}thode de Brent}{13}}
\@writefile{toc}{\contentsline {subsection}{La m\IeC {\'e}thode de Dekker}{13}}
\@writefile{toc}{\contentsline {subsection}{Les modifications de Brent}{14}}
\@writefile{toc}{\contentsline {subsection}{R\IeC {\'e}solution d'un syst\IeC {\`e}me d'\IeC {\'e}quation}{14}}
\@writefile{toc}{\contentsline {subsection}{Impl\IeC {\'e}mentation num\IeC {\'e}rique}{15}}
\@setckpt{part_1}{
\setcounter{page}{16}
\setcounter{equation}{10}
\setcounter{enumi}{0}
\setcounter{enumii}{0}
\setcounter{enumiii}{0}
\setcounter{enumiv}{0}
\setcounter{footnote}{0}
\setcounter{mpfootnote}{0}
\setcounter{@memmarkcntra}{0}
\setcounter{storedpagenumber}{1}
\setcounter{book}{0}
\setcounter{part}{0}
\setcounter{chapter}{0}
\setcounter{section}{5}
\setcounter{subsection}{0}
\setcounter{subsubsection}{0}
\setcounter{paragraph}{0}
\setcounter{subparagraph}{0}
\setcounter{@ppsavesec}{0}
\setcounter{@ppsaveapp}{0}
\setcounter{vslineno}{0}
\setcounter{poemline}{0}
\setcounter{modulo@vs}{0}
\setcounter{memfvsline}{0}
\setcounter{verse}{0}
\setcounter{chrsinstr}{0}
\setcounter{poem}{0}
\setcounter{newflo@tctr}{4}
\setcounter{@contsubnum}{0}
\setcounter{maxsecnumdepth}{1}
\setcounter{sidefootnote}{0}
\setcounter{pagenote}{0}
\setcounter{pagenoteshadow}{0}
\setcounter{memfbvline}{0}
\setcounter{bvlinectr}{0}
\setcounter{cp@cntr}{0}
\setcounter{ism@mctr}{0}
\setcounter{xsm@mctr}{0}
\setcounter{csm@mctr}{0}
\setcounter{ksm@mctr}{0}
\setcounter{xksm@mctr}{0}
\setcounter{cksm@mctr}{0}
\setcounter{msm@mctr}{0}
\setcounter{xmsm@mctr}{0}
\setcounter{cmsm@mctr}{0}
\setcounter{bsm@mctr}{0}
\setcounter{workm@mctr}{0}
\setcounter{sheetsequence}{16}
\setcounter{lastsheet}{3}
\setcounter{lastpage}{3}
\setcounter{figure}{4}
\setcounter{lofdepth}{1}
\setcounter{table}{0}
\setcounter{lotdepth}{1}
}
