\relax 
\catcode`:\active
\catcode`;\active
\catcode`!\active
\catcode`?\active
\select@language{french}
\@writefile{toc}{\select@language{french}}
\@writefile{lof}{\select@language{french}}
\@writefile{lot}{\select@language{french}}
\@writefile{toc}{\contentsline {section}{\numberline {1}Introduction}{1}}
\@writefile{toc}{\contentsline {paragraph}{}{1}}
\@writefile{toc}{\contentsline {paragraph}{}{1}}
\newlabel{eqKernelTrick}{{1}{1}}
\@writefile{toc}{\contentsline {paragraph}{}{1}}
\@writefile{lof}{\contentsline {figure}{\numberline {1}{\ignorespaces  Distribution \IeC {\`a} post\IeC {\'e}riori du vecteur Y pour un noyau gaussien et diff\IeC {\'e}rentes valeurs pour la bande passante}}{2}}
\newlabel{fig_Iexptest}{{1}{2}}
\newlabel{R\IeC {\'e}f\IeC {\'e}rence}{{1}{2}}
\@writefile{lof}{\contentsline {figure}{\numberline {2}{\ignorespaces  Distribution \IeC {\`a} post\IeC {\'e}riori du vecteur Y pour un noyau gaussien et $sigma$ = 5}}{3}}
\newlabel{fig_Iexptest2}{{2}{3}}
\newlabel{R\IeC {\'e}f\IeC {\'e}rence}{{2}{3}}
\@writefile{toc}{\contentsline {section}{\numberline {2}\IeC {\'E}tude de l'EM \IeC {\`a} noyau}{3}}
\@writefile{toc}{\contentsline {subsection}{\numberline {2.1}Estimation des lois des m\IeC {\'e}langes}{3}}
\newlabel{SectionEstimation}{{2.1}{3}}
\@writefile{toc}{\contentsline {subsubsection}{\numberline {2.1.1}Loi Exponentielle}{3}}
\@writefile{toc}{\contentsline {paragraph}{monovari\IeC {\'e}}{3}}
\newlabel{mono-simpleEst}{{4}{3}}
\@writefile{lof}{\contentsline {figure}{\numberline {3}{\ignorespaces  Distribution \IeC {\`a} post\IeC {\'e}riori du vecteur Y pour un noyau gaussien et $sigma$ = 5}}{4}}
\newlabel{fig_Iexptest3}{{3}{4}}
\newlabel{R\IeC {\'e}f\IeC {\'e}rence}{{3}{4}}
\@writefile{toc}{\contentsline {paragraph}{mod\IeC {\`e}le multivari\IeC {\'e}}{5}}
\@writefile{toc}{\contentsline {subsubsection}{\numberline {2.1.2}de Rayleigh}{6}}
\@writefile{toc}{\contentsline {paragraph}{Mod\IeC {\`e}le monovari\IeC {\'e}}{6}}
\@writefile{toc}{\contentsline {paragraph}{Mod\IeC {\`e}le multivari\IeC {\'e}}{6}}
\@writefile{toc}{\contentsline {subsection}{\numberline {2.2}Estimation du nombre de composantes}{7}}
\@writefile{toc}{\contentsline {paragraph}{}{7}}
\@writefile{toc}{\contentsline {subsection}{\numberline {2.3}Estimation de la bande passante}{7}}
\citation{Wicker2014}
\citation{Wicker2001}
\@writefile{toc}{\contentsline {subsection}{\numberline {2.4}Classification}{8}}
\@writefile{toc}{\contentsline {paragraph}{R\IeC {\`e}gle classique}{8}}
\@writefile{toc}{\contentsline {paragraph}{The Bayes discriminant conditionnally-independent distance rule (CID)}{8}}
\@writefile{toc}{\contentsline {subsection}{\numberline {2.5}R\IeC {\'e}sultats interm\IeC {\'e}diaire}{8}}
\@writefile{toc}{\contentsline {paragraph}{}{8}}
\@writefile{toc}{\contentsline {paragraph}{}{8}}
\bibstyle{unsrt}
\bibdata{../memoirebib}
\bibcite{Wicker2014}{1}
\bibcite{Wicker2001}{2}
\@writefile{lof}{\contentsline {figure}{\numberline {4}{\ignorespaces  Premiers sur le jeu de donn\IeC {\'e}es Iris. A gauche via la loi exponentielle et \IeC {\`a} droite via la loi de Rayleigh}}{9}}
\newlabel{fig_resInt1}{{4}{9}}
\newlabel{R\IeC {\'e}f\IeC {\'e}rence}{{4}{9}}
\@writefile{toc}{\contentsline {section}{\numberline {3}Application au cas des prot\IeC {\'e}ines}{9}}
