\relax 
\catcode`:\active
\catcode`;\active
\catcode`!\active
\catcode`?\active
\citation{Dempster97}
\select@language{french}
\@writefile{toc}{\select@language{french}}
\@writefile{lof}{\select@language{french}}
\@writefile{lot}{\select@language{french}}
\@writefile{toc}{\contentsline {section}{\numberline {1}Introduction : l'algorithme EM}{1}}
\@writefile{loa}{\contentsline {algorithm}{\numberline {1}{\ignorespaces S'approcher d'un maximum local de L avec la pr\IeC {\'e}cision $\epsilon $}}{2}}
\@writefile{toc}{\contentsline {subsection}{\numberline {1.1}\IeC {\'E}quation finale de la log-vraisemblance}{3}}
\newlabel{eq:finalLogVraisemblance}{{2}{3}}
\@writefile{toc}{\contentsline {section}{\numberline {2}M\IeC {\'e}lange Gaussien}{3}}
\@writefile{toc}{\contentsline {subsubsection}{\numberline {2.0.1}\IeC {\'E}tape M du mod\IeC {\`e}le gaussien monovari\IeC {\'e}}{3}}
\@writefile{toc}{\contentsline {subsubsection}{\numberline {2.0.2}\IeC {\'E}tape M du mod\IeC {\`e}le gaussien\_$\mu _k$\_$\sigma _k$}{3}}
\@writefile{toc}{\contentsline {subsubsection}{\numberline {2.0.3}\IeC {\'E}tape M du mod\IeC {\`e}le gaussien\_$\mu _k^j$\_$\sigma _k^j$}{4}}
\citation{BetaLoi}
\citation{Dennis1996}
\@writefile{toc}{\contentsline {section}{\numberline {3}M\IeC {\'e}lange b\IeC {\^e}ta}{5}}
\@writefile{toc}{\contentsline {subsubsection}{\numberline {3.0.4}\IeC {\'E}tape M du mod\IeC {\`e}le b\IeC {\^e}ta uni-vari\IeC {\'e}}{5}}
\newlabel{eq:logVraisBeta2}{{5}{5}}
\@writefile{toc}{\contentsline {subsubsection}{\numberline {3.0.5}\IeC {\'E}tape M du mod\IeC {\`e}le b\IeC {\^e}ta\_ajk\_bjk}{6}}
\@writefile{toc}{\contentsline {section}{\numberline {4}M\IeC {\'e}lange gamma}{7}}
\@writefile{toc}{\contentsline {subsection}{\numberline {4.1}\IeC {\'E}tape M du mod\IeC {\`e}le mono-vari\IeC {\'e}}{7}}
\@writefile{toc}{\contentsline {subsection}{\numberline {4.2}\IeC {\'E}tape M du mod\IeC {\`e}le gamma\_ajk\_bjk}{7}}
\@writefile{lof}{\contentsline {figure}{\numberline {1}{\ignorespaces  R\IeC {\'e}sultat de la classification}}{8}}
\newlabel{fig_gaussMix1}{{1}{8}}
\newlabel{R\IeC {\'e}f\IeC {\'e}rence}{{1}{8}}
\@writefile{toc}{\contentsline {section}{\numberline {5}R\IeC {\'e}sultats num\IeC {\'e}riques}{8}}
\@writefile{toc}{\contentsline {subsection}{\numberline {5.1}M\IeC {\'e}lange gaussien}{8}}
\@writefile{lof}{\contentsline {figure}{\numberline {2}{\ignorespaces  Repr\IeC {\'e}sentation des r\IeC {\'e}sultats en 3 dimensions}}{9}}
\newlabel{fig_gaussMix2}{{2}{9}}
\newlabel{R\IeC {\'e}f\IeC {\'e}rence}{{2}{9}}
\@writefile{lof}{\contentsline {figure}{\numberline {3}{\ignorespaces  Repr\IeC {\'e}sentation des r\IeC {\'e}sultats en 3 dimensions}}{9}}
\newlabel{fig_gaussMix3}{{3}{9}}
\newlabel{R\IeC {\'e}f\IeC {\'e}rence}{{3}{9}}
\@writefile{lof}{\contentsline {figure}{\numberline {4}{\ignorespaces  Repr\IeC {\'e}sentation des r\IeC {\'e}sultats en 3 dimensions pour une loi Beta}}{10}}
\newlabel{fig_betaMix1}{{4}{10}}
\newlabel{R\IeC {\'e}f\IeC {\'e}rence}{{4}{10}}
\@writefile{toc}{\contentsline {subsection}{\numberline {5.2}M\IeC {\'e}lange beta}{10}}
\@writefile{toc}{\contentsline {section}{\numberline {6}La m\IeC {\'e}thode de Brent}{11}}
\@writefile{toc}{\contentsline {subsection}{\numberline {6.1}La m\IeC {\'e}thode de Dekker}{11}}
\@writefile{toc}{\contentsline {subsection}{\numberline {6.2}Les modifications de Brent}{12}}
\@writefile{toc}{\contentsline {subsection}{\numberline {6.3}R\IeC {\'e}solution d'un syst\IeC {\`e}me d'\IeC {\'e}quation}{12}}
\bibstyle{unsrt}
\bibdata{../memoirebib}
\bibcite{Dempster97}{1}
\bibcite{BetaLoi}{2}
\bibcite{Dennis1996}{3}
\@writefile{loa}{\contentsline {algorithm}{\numberline {2}{\ignorespaces calculer $x$ et $y$ avec la pr\IeC {\'e}cision $\epsilon $}}{13}}
\@writefile{toc}{\contentsline {subsection}{\numberline {6.4}Impl\IeC {\'e}mentation num\IeC {\'e}rique}{13}}
