\begin{thebibliography}{1}

\bibitem{Wicker2014}
Alejandro~Murua Nicolas~Wicker.
\newblock Kernel-based mixtured models for classification.

\bibitem{Aizerman1964}
Braverman E. M. \& Rozoner L.~I. Aizerman, A.
\newblock heoretical foundations of the potential function method in pattern
  recognition learning.
\newblock 1964.

\bibitem{Silverman1996}
James S.~Marron Jones, M.~Chris and Simon~J. Sheather.
\newblock brief survey of bandwidth selection for density estimation.
\newblock {\em Journal of the American Statistical Association}, 1996.

\bibitem{akaike1974}
H~Akaike.
\newblock A new look at the statistical model identification.
\newblock {\em Automatic Control}, 1974.

\bibitem{Wicker2001}
Jean Claude Thierry Olivier~Poch Nicolas~Wicker, Guy René~Perrin.
\newblock Secator: a program for inferring protein subfamilies from
  phylogenetic trees.
\newblock {\em Molecular biology and evolution}, 2001.

\end{thebibliography}
