\relax 
\citation{Wicker2014}
\citation{Aizerman1964}
\select@language{english}
\@writefile{toc}{\select@language{english}}
\@writefile{lof}{\select@language{english}}
\@writefile{lot}{\select@language{english}}
\@writefile{toc}{\contentsline {section}{\numberline {1}Introduction}{1}}
\@writefile{toc}{\contentsline {paragraph}{}{1}}
\@writefile{toc}{\contentsline {paragraph}{}{1}}
\newlabel{eqKernelTrick}{{1}{1}}
\citation{Silverman1996}
\@writefile{toc}{\contentsline {paragraph}{}{2}}
\@writefile{lof}{\contentsline {figure}{\numberline {1}{\ignorespaces  Distribution of the distant vector Y, where X rises from a normal distribution and different values of the bandwidth.}}{3}}
\newlabel{fig_Iexptest}{{1}{3}}
\newlabel{R\IeC {\'e}f\IeC {\'e}rence}{{1}{3}}
\@writefile{lof}{\contentsline {figure}{\numberline {2}{\ignorespaces  Distribution of each class of the Isis dataset, for different values of the bandwidth, and its estimation by an exponential distribution (solid red line) and a Rayleigh(dashed green line).}}{4}}
\newlabel{fig_Iexptest3}{{2}{4}}
\newlabel{R\IeC {\'e}f\IeC {\'e}rence}{{2}{4}}
\@writefile{toc}{\contentsline {section}{\numberline {2}Kernel EM}{5}}
\@writefile{toc}{\contentsline {subsection}{\numberline {2.1}Parameters estimation}{5}}
\newlabel{SectionEstimation}{{2.1}{5}}
\newlabel{mono-simpleEst}{{3}{5}}
\@writefile{toc}{\contentsline {subsubsection}{\numberline {2.1.1}Exponential distribution}{5}}
\@writefile{toc}{\contentsline {paragraph}{univariate model}{5}}
\@writefile{toc}{\contentsline {paragraph}{multivariate model}{5}}
\@writefile{toc}{\contentsline {subsubsection}{\numberline {2.1.2}Rayleigh distribution}{6}}
\@writefile{toc}{\contentsline {paragraph}{univariate model}{6}}
\citation{akaike1974}
\@writefile{toc}{\contentsline {paragraph}{multivariate}{7}}
\@writefile{toc}{\contentsline {subsection}{\numberline {2.2}Choosing the number of components}{7}}
\@writefile{toc}{\contentsline {paragraph}{}{7}}
\@writefile{toc}{\contentsline {subsection}{\numberline {2.3}Choosing the bandwidth}{7}}
\citation{Wicker2014}
\@writefile{toc}{\contentsline {subsection}{\numberline {2.4}Classification}{8}}
\@writefile{toc}{\contentsline {paragraph}{classical rule}{8}}
\@writefile{toc}{\contentsline {paragraph}{The Bayes discriminant conditionnally-independent distance rule (CID)}{8}}
\@writefile{toc}{\contentsline {subsection}{\numberline {2.5}R\IeC {\'e}sultats interm\IeC {\'e}diaire}{8}}
\@writefile{toc}{\contentsline {paragraph}{}{8}}
\citation{Wicker2001}
\bibstyle{unsrt}
\bibdata{../memoirebib}
\bibcite{Wicker2014}{1}
\bibcite{Aizerman1964}{2}
\bibcite{Silverman1996}{3}
\bibcite{akaike1974}{4}
\@writefile{lof}{\contentsline {figure}{\numberline {3}{\ignorespaces  First results on the Iris datasets. On the left the exponential distribution is used, whereas the Rayleigh is used on the right.}}{9}}
\newlabel{fig_resInt1}{{3}{9}}
\newlabel{R\IeC {\'e}f\IeC {\'e}rence}{{3}{9}}
\@writefile{toc}{\contentsline {paragraph}{}{9}}
\@writefile{toc}{\contentsline {section}{\numberline {3}Application to a protein database}{9}}
\@writefile{toc}{\contentsline {section}{\numberline {4}Conclusion}{9}}
\bibcite{Wicker2001}{5}
